[
  {
    "updated_at": "2014-12-08T06:00:00Z",
    "quantity": 8,
    "code": "FL8",
    "name": "Family Room"
  },
  {
    "updated_at": "2014-12-08T06:00:00Z",
    "quantity": 7,
    "code": "FL7",
    "name": "Family Room"
  },
  {
    "updated_at": "2014-12-08T06:00:00Z",
    "quantity": 6,
    "code": "FL6",
    "name": "Family Room"
  },
  {
    "updated_at": "2014-12-08T06:00:00Z",
    "quantity": 5,
    "code": "FL5",
    "name": "Family Room"
  },
  {
    "updated_at": "2014-12-08T06:00:00Z",
    "quantity": 4,
    "code": "QB",
    "name": "Quad"
  },
  {
    "updated_at": "2014-12-08T06:00:00Z",
    "quantity": 3,
    "code": "TB",
    "name": "Triple"
  },
  {
    "updated_at": "2014-12-08T06:00:00Z",
    "quantity": 2,
    "code": "TW",
    "name": "Twin"
  },
  {
    "updated_at": "2014-12-08T06:00:00Z",
    "quantity": 2,
    "code": "DB",
    "name": "Double"
  },
  {
    "updated_at": "2014-12-08T06:00:00Z",
    "quantity": 1,
    "code": "SB",
    "name": "Single"
  }
]